…
$`Train Metrics`
      AUC     ACC
1 0.99999 0.99014

$`Train Metrics by labels`
# A tibble: 264 x 9
   tag                                                                                      n     p   AUC order   ACC   PRC   TPR   TNR
   <chr>                                                                                <dbl> <dbl> <dbl> <dbl> <dbl> <dbl> <dbl> <dbl>
 1 trd.ferreteria..trd.automotriz..trd.herramientas.automotriz..trd.juego.de.dados       2333  9.5   1.00     1 0.999 0.994 0.998 0.999
 2 trd.ferreteria..trd.herramientas.manuales..trd.juegoscombos..trd.juegoscombos          892  3.63  1.00     2 0.997 0.976 0.944 0.999
 3 trd.ferreteria..trd.herramientas.electricas..trd.accesorios.y.repuestos..trd.brocas…   862  3.51  1        3 1.00  1     0.997 1    
 4 trd.ferreteria..trd.automotriz..trd.herramientas.automotriz..trd.llaves.hexagonales    769  3.13  1.00     4 0.999 0.987 0.995 1.00 
 5 trd.ferreteria..trd.automotriz..trd.herramientas.automotriz..trd.herramientas.otros    688  2.8   1.00     5 0.998 0.975 0.961 0.999
 6 trd.ferreteria..trd.herramientas.manuales..trd.de.ajuste..trd.destornilladores         626  2.55  1.00     6 1.00  1     0.992 1    
 7 trd.ferreteria..trd.herramientas.electricas..trd.accesorios.y.repuestos..trd.discos…   434  1.77  1        7 1.00  0.995 0.995 1.00 
 8 trd.ferreteria..trd.herramientas.manuales..trd.de.ajuste..trd.llaves.caneria           408  1.66  1        8 1.00  0.990 0.998 1.00 
 9 trd.estructura..trd.tubosistemas..trd.tuberia.y.accesorios.cpvc..trd.figuras.cpvc      348  1.42  1        9 1.00  0.994 1     1.00 
10 trd.ferreteria..trd.automotriz..trd.herramientas.automotriz..trd.llaves.allen          313  1.28  1.00    10 1.00  0.990 0.990 1.00 
# … with 254 more rows

$`Train's Confusion Matrix`
# A tibble: 264 x 265
   `Real x Pred` trd.ferreteria.… trd.ferreteria.… trd.ferreteria.… trd.ferreteria.… trd.ferreteria.… trd.ferreteria.… trd.ferreteria.…
   <fct>                    <int>            <int>            <int>            <int>            <int>            <int>            <int>
 1 trd.ferreter…             2328                0                0                0                4                0                0
 2 trd.ferreter…                2              842                0               10                3                0                0
 3 trd.ferreter…                0                0              859                0                0                0                0
 4 trd.ferreter…                0                4                0              765                0                0                0
 5 trd.ferreter…               10                9                0                0              661                0                0
 6 trd.ferreter…                1                1                0                0                3              621                0
 7 trd.ferreter…                0                0                0                0                0                0              432
 8 trd.ferreter…                0                1                0                0                0                0                0
 9 trd.estructu…                0                0                0                0                0                0                0
10 trd.ferreter…                1                2                0                0                0                0                0
# … with 254 more rows, and 257 more variables: trd.ferreteria..trd.herramientas.manuales..trd.de.ajuste..trd.llaves.caneria <int>,
#   trd.estructura..trd.tubosistemas..trd.tuberia.y.accesorios.cpvc..trd.figuras.cpvc <int>,
#   trd.ferreteria..trd.automotriz..trd.herramientas.automotriz..trd.llaves.allen <int>,
#   trd.ferreteria..trd.herramientas.manuales..trd.electricista..trd.htas.varias <int>,
#   trd.estructura..trd.tubosistemas..trd.tuberia.y.accesorios.pvc..trd.figuras.pvc <int>,
#   trd.estructura..trd.tubosistemas..trd.tuberia.y.accesorios.ppr..trd.figuras.ppr <int>,
#   trd.ferreteria..trd.herramientas.manuales..trd.albanileria..trd.cinceles <int>,
#   trd.acabados..trd.griferia..trd.accesorios.y.repuestos..trd.complementos.griferia <int>,
#   trd.ferreteria..trd.electrico..trd.accesorios.y.repuestos..trd.extensiones..extensores <int>,
…
