…
$`Train Metrics`
      AUC     ACC
1 0.99999 0.98698

$`Train Metrics by labels`
# A tibble: 264 x 9
   tag                                                                   n     p   AUC order   ACC   PRC   TPR   TNR
   <chr>                                                             <dbl> <dbl> <dbl> <dbl> <dbl> <dbl> <dbl> <dbl>
 1 trd.ferreteria..trd.automotriz..trd.herramientas.automotriz..trd…  2333  9.52  1.00     1 0.999 0.993 0.998 0.999
 2 trd.ferreteria..trd.herramientas.manuales..trd.juegoscombos..trd…   892  3.64  1.00     2 0.997 0.976 0.942 0.999
 3 trd.ferreteria..trd.herramientas.electricas..trd.accesorios.y.re…   862  3.52  1        3 1.00  1     0.997 1    
 4 trd.ferreteria..trd.automotriz..trd.herramientas.automotriz..trd…   769  3.14  1.00     4 0.999 0.986 0.996 1.00 
 5 trd.ferreteria..trd.automotriz..trd.herramientas.automotriz..trd…   678  2.77  1.00     5 0.998 0.974 0.947 0.999
 6 trd.ferreteria..trd.herramientas.manuales..trd.de.ajuste..trd.de…   625  2.55  1.00     6 1.00  0.998 0.989 1.00 
 7 trd.ferreteria..trd.herramientas.electricas..trd.accesorios.y.re…   434  1.77  1        7 1.00  0.989 1     1.00 
 8 trd.ferreteria..trd.herramientas.manuales..trd.de.ajuste..trd.ll…   408  1.66  1.00     8 1.00  0.983 0.995 1.00 
 9 trd.estructura..trd.tubosistemas..trd.tuberia.y.accesorios.cpvc.…   348  1.42  1        9 1.00  1     0.994 1    
10 trd.ferreteria..trd.automotriz..trd.herramientas.automotriz..trd…   313  1.28  1.00    10 1.00  0.994 0.981 1.00 
# … with 254 more rows

$`Train's Confusion Matrix`
# A tibble: 264 x 265
   `Real x Pred` trd.ferreteria.… trd.ferreteria.… trd.ferreteria.… trd.ferreteria.… trd.ferreteria.…
   <fct>                    <int>            <int>            <int>            <int>            <int>
 1 trd.ferreter…             2328                0                0                0                3
 2 trd.ferreter…                2              840                0               10                3
 3 trd.ferreter…                0                0              859                0                0
 4 trd.ferreter…                0                2                0              766                0
 5 trd.ferreter…               11                9                0                0              642
 6 trd.ferreter…                1                0                0                0                3
 7 trd.ferreter…                0                0                0                0                0
 8 trd.ferreter…                1                1                0                0                0
 9 trd.estructu…                0                0                0                0                0
10 trd.ferreter…                2                4                0                0                0
# … with 254 more rows, and 259 more variables:
#   trd.ferreteria..trd.herramientas.manuales..trd.de.ajuste..trd.destornilladores <int>,
#   trd.ferreteria..trd.herramientas.electricas..trd.accesorios.y.repuestos..trd.discos.de.esmeril <int>,
#   trd.ferreteria..trd.herramientas.manuales..trd.de.ajuste..trd.llaves.caneria <int>,
#   trd.estructura..trd.tubosistemas..trd.tuberia.y.accesorios.cpvc..trd.figuras.cpvc <int>,
#   trd.ferreteria..trd.automotriz..trd.herramientas.automotriz..trd.llaves.allen <int>,
#   trd.ferreteria..trd.herramientas.manuales..trd.electricista..trd.htas.varias <int>,
#   trd.acabados..trd.griferia..trd.accesorios.y.repuestos..trd.complementos.griferia <int>,
#   trd.estructura..trd.tubosistemas..trd.tuberia.y.accesorios.pvc..trd.figuras.pvc <int>,
…
