…
$`Train Metrics`
      AUC     ACC
1 0.99999 0.99316

$`Train Metrics by labels`
# A tibble: 264 x 9
   tag                                                                   n     p   AUC order   ACC   PRC   TPR   TNR
   <chr>                                                             <dbl> <dbl> <dbl> <dbl> <dbl> <dbl> <dbl> <dbl>
 1 trd.ferreteria..trd.automotriz..trd.herramientas.automotriz..trd…  2333  9.5   1        1 1.00  0.997 0.999  1.00
 2 trd.ferreteria..trd.herramientas.manuales..trd.juegoscombos..trd…   892  3.63  1.00     2 0.999 0.989 0.990  1.00
 3 trd.ferreteria..trd.herramientas.electricas..trd.accesorios.y.re…   862  3.51  1.00     3 1.00  0.999 0.999  1.00
 4 trd.ferreteria..trd.automotriz..trd.herramientas.automotriz..trd…   769  3.13  1        4 1.00  0.999 0.999  1.00
 5 trd.ferreteria..trd.automotriz..trd.herramientas.automotriz..trd…   692  2.82  1.00     5 0.999 0.991 0.986  1.00
 6 trd.ferreteria..trd.herramientas.manuales..trd.de.ajuste..trd.de…   626  2.55  1        6 1.00  0.997 0.998  1.00
 7 trd.ferreteria..trd.herramientas.electricas..trd.accesorios.y.re…   434  1.77  1        7 1.00  0.995 0.998  1.00
 8 trd.ferreteria..trd.herramientas.manuales..trd.de.ajuste..trd.ll…   408  1.66  1.00     8 1.00  0.995 0.995  1.00
 9 trd.estructura..trd.tubosistemas..trd.tuberia.y.accesorios.cpvc.…   348  1.42  1.00     9 1.00  0.997 0.991  1.00
10 trd.ferreteria..trd.automotriz..trd.herramientas.automotriz..trd…   313  1.27  1       10 1.00  0.997 0.987  1.00
# … with 254 more rows

$`Train's Confusion Matrix`
# A tibble: 264 x 265
   `Real x Pred` trd.ferreteria.… trd.ferreteria.… trd.ferreteria.… trd.ferreteria.… trd.ferreteria.…
   <fct>                    <int>            <int>            <int>            <int>            <int>
 1 trd.ferreter…             2330                0                0                0                1
 2 trd.ferreter…                2              883                0                0                1
 3 trd.ferreter…                0                0              861                0                0
 4 trd.ferreter…                0                1                0              768                0
 5 trd.ferreter…                2                1                0                0              682
 6 trd.ferreter…                1                0                0                0                0
 7 trd.ferreter…                1                0                0                0                0
 8 trd.ferreter…                0                0                1                0                0
 9 trd.estructu…                1                0                0                0                0
10 trd.ferreter…                0                1                0                0                0
# … with 254 more rows, and 259 more variables:
#   trd.ferreteria..trd.herramientas.manuales..trd.de.ajuste..trd.destornilladores <int>,
#   trd.ferreteria..trd.herramientas.electricas..trd.accesorios.y.repuestos..trd.discos.de.esmeril <int>,
#   trd.ferreteria..trd.herramientas.manuales..trd.de.ajuste..trd.llaves.caneria <int>,
#   trd.estructura..trd.tubosistemas..trd.tuberia.y.accesorios.cpvc..trd.figuras.cpvc <int>,
#   trd.ferreteria..trd.automotriz..trd.herramientas.automotriz..trd.llaves.allen <int>,
#   trd.acabados..trd.griferia..trd.accesorios.y.repuestos..trd.complementos.griferia <int>,
#   trd.ferreteria..trd.herramientas.manuales..trd.electricista..trd.htas.varias <int>,
#   trd.estructura..trd.tubosistemas..trd.tuberia.y.accesorios.pvc..trd.figuras.pvc <int>,
…
