…
$`Test Metrics`
      AUC    ACC
1 0.99734 0.9651

$`Test Metrics by labels`
# A tibble: 363 x 9
   tag                                                                             n     p   AUC order   ACC   PRC   TPR   TNR
   <chr>                                                                       <dbl> <dbl> <dbl> <dbl> <dbl> <dbl> <dbl> <dbl>
 1 trd.ferreteria..trd.automotriz..trd.herramientas.automotriz..trd.juego.de.…  2391  5.78 1.00      1 0.999 0.991 0.997 0.999
 2 trd.ferreteria..trd.herramientas.electricas..trd.accesorios.y.repuestos..t…   961  2.32 1.00      2 0.999 0.985 0.980 1.00 
 3 trd.acabados..trd.griferia..trd.accesorios.y.repuestos..trd.complementos.g…   933  2.25 0.999     3 0.992 0.741 0.967 0.992
 4 trd.ferreteria..trd.herramientas.manuales..trd.juegoscombos..trd.juegoscom…   899  2.17 0.999     4 0.999 0.974 0.968 0.999
 5 trd.acabados..trd.pinturas.y.recubrimientos..trd.pinturas..trd.pintura.acr…   880  2.13 0.999     5 0.999 0.986 0.983 1.00 
 6 trd.ferreteria..trd.automotriz..trd.herramientas.automotriz..trd.llaves.he…   777  1.88 0.999     6 1.00  0.994 0.988 1.00 
 7 trd.ferreteria..trd.herramientas.manuales..trd.de.ajuste..trd.destornillad…   740  1.79 1.00      7 1.00  0.992 0.982 1.00 
 8 trd.ferreteria..trd.automotriz..trd.herramientas.automotriz..trd.herramien…   695  1.68 0.998     8 0.998 0.938 0.957 0.999
 9 trd.acabados..trd.pisos.y.azulejos..trd.pisos..trd.ceramica                   604  1.46 1.00      9 1.00  0.987 0.987 1.00 
10 trd.ferreteria..trd.herramientas.electricas..trd.accesorios.y.repuestos..t…   592  1.43 1.00     10 1.00  0.991 0.983 1.00 
# … with 353 more rows

$`Test's Confusion Matrix`
# A tibble: 363 x 364
   `Real x Pred` trd.ferreteria.… trd.ferreteria.… trd.acabados..t… trd.ferreteria.… trd.acabados..t… trd.ferreteria.…
   <fct>                    <int>            <int>            <int>            <int>            <int>            <int>
 1 trd.ferreter…             2384                0                0                0                0                0
 2 trd.ferreter…                0              942                2                0                0                0
 3 trd.acabados…                0                0              902                2                0                0
 4 trd.ferreter…                3                0                7              870                0                1
 5 trd.acabados…                0                1                5                0              865                0
 6 trd.ferreter…                0                0                0                5                0              768
 7 trd.ferreter…                1                0                1                0                0                0
 8 trd.ferreter…                4                0                5                3                0                0
 9 trd.acabados…                0                0                4                0                1                0
10 trd.ferreter…                0                0                4                0                0                0
# … with 353 more rows, and 357 more variables:
#   trd.ferreteria..trd.herramientas.manuales..trd.de.ajuste..trd.destornilladores <int>,
#   trd.ferreteria..trd.automotriz..trd.herramientas.automotriz..trd.herramientas.otros <int>,
#   trd.acabados..trd.pisos.y.azulejos..trd.pisos..trd.ceramica <int>,
#   trd.ferreteria..trd.herramientas.electricas..trd.accesorios.y.repuestos..trd.discos.de.esmeril <int>,
#   trd.estructura..trd.tubosistemas..trd.tuberia.y.accesorios.cpvc..trd.figuras.cpvc <int>,
#   trd.obra.gris..trd.electrico..trd.cables..trd.cubierto <int>,
#   trd.ferreteria..trd.herramientas.manuales..trd.de.ajuste..trd.llaves.caneria <int>,
#   trd.estructura..trd.tubosistemas..trd.tuberia.y.accesorios.ppr..trd.figuras.ppr <int>,
…
