…
$`Test Metrics`
  AUC     ACC
1   1 0.99593

$`Test Metrics by labels`
# A tibble: 370 x 9
   tag                                                                           n     p   AUC order   ACC   PRC   TPR   TNR
   <chr>                                                                     <dbl> <dbl> <dbl> <dbl> <dbl> <dbl> <dbl> <dbl>
 1 trd.ferreteria..trd.automotriz..trd.herramientas.automotriz..trd.juego.d…  2391  5.47  1        1  1.00 0.999 1      1.00
 2 trd.acabados..trd.griferia..trd.accesorios.y.repuestos..trd.complementos…  1131  2.59  1.00     2  1.00 0.996 0.995  1.00
 3 trd.acabados..trd.pinturas.y.recubrimientos..trd.pinturas..trd.pintura.a…  1010  2.31  1        3  1.00 1     0.994  1   
 4 trd.ferreteria..trd.herramientas.electricas..trd.accesorios.y.repuestos.…   963  2.2   1        4  1.00 0.994 0.993  1.00
 5 trd.ferreteria..trd.herramientas.manuales..trd.juegoscombos..trd.juegosc…   899  2.05  1        5  1.00 0.998 0.994  1.00
 6 trd.estructura..trd.tubosistemas..trd.tuberia.y.accesorios.cpvc..trd.fig…   808  1.85  1        6  1.00 0.998 0.999  1.00
 7 trd.ferreteria..trd.automotriz..trd.herramientas.automotriz..trd.llaves.…   777  1.78  1        7  1.00 1     0.999  1   
 8 trd.ferreteria..trd.herramientas.manuales..trd.de.ajuste..trd.destornill…   764  1.75  1        8  1.00 1     0.999  1   
 9 trd.ferreteria..trd.automotriz..trd.herramientas.automotriz..trd.herrami…   695  1.59  1        9  1.00 0.997 0.996  1.00
10 trd.acabados..trd.pisos.y.azulejos..trd.pisos..trd.ceramica                 620  1.42  1       10  1.00 1     0.995  1   
# … with 360 more rows

$`Test's Confusion Matrix`
# A tibble: 370 x 371
   `Real x Pred` trd.ferreteria.… trd.acabados..t… trd.acabados..t… trd.ferreteria.… trd.ferreteria.… trd.estructura.…
   <fct>                    <int>            <int>            <int>            <int>            <int>            <int>
 1 trd.ferreter…             2391                0                0                0                0                0
 2 trd.acabados…                0             1125                0                0                0                0
 3 trd.acabados…                0                0             1004                0                0                0
 4 trd.ferreter…                0                0                0              956                0                0
 5 trd.ferreter…                0                0                0                0              894                0
 6 trd.estructu…                0                0                0                0                0              807
 7 trd.ferreter…                0                0                0                0                1                0
 8 trd.ferreter…                1                0                0                0                0                0
 9 trd.ferreter…                1                0                0                0                0                0
10 trd.acabados…                0                0                0                0                0                0
# … with 360 more rows, and 364 more variables:
#   trd.ferreteria..trd.automotriz..trd.herramientas.automotriz..trd.llaves.hexagonales <int>,
#   trd.ferreteria..trd.herramientas.manuales..trd.de.ajuste..trd.destornilladores <int>,
#   trd.ferreteria..trd.automotriz..trd.herramientas.automotriz..trd.herramientas.otros <int>,
#   trd.acabados..trd.pisos.y.azulejos..trd.pisos..trd.ceramica <int>,
#   trd.ferreteria..trd.herramientas.electricas..trd.accesorios.y.repuestos..trd.discos.de.esmeril <int>,
#   trd.obra.gris..trd.electrico..trd.cables..trd.cubierto <int>,
#   trd.estructura..trd.tubosistemas..trd.tuberia.y.accesorios.pvc.sanitaria..trd.figuras.pvc.sanitaria <int>,
#   trd.ferreteria..trd.herramientas.manuales..trd.de.ajuste..trd.llaves.caneria <int>,
…
