…
$`Test Metrics`
  AUC     ACC
1   1 0.99629

$`Test Metrics by labels`
# A tibble: 302 x 9
   tag                                                                      n     p   AUC order   ACC   PRC   TPR   TNR
   <chr>                                                                <dbl> <dbl> <dbl> <dbl> <dbl> <dbl> <dbl> <dbl>
 1 trd.ferreteria..trd.automotriz..trd.herramientas.automotriz..trd.ju…  2446  7.63  1.00     1  1.00 0.997 0.999  1.00
 2 trd.ferreteria..trd.herramientas.electricas..trd.accesorios.y.repue…  1008  3.14  1.00     2  1.00 0.995 0.991  1.00
 3 trd.ferreteria..trd.herramientas.manuales..trd.juegoscombos..trd.ju…   898  2.8   1.00     3  1.00 0.994 0.994  1.00
 4 trd.ferreteria..trd.automotriz..trd.herramientas.automotriz..trd.ll…   769  2.4   1        4  1.00 1     0.999  1   
 5 trd.ferreteria..trd.herramientas.manuales..trd.de.ajuste..trd.desto…   726  2.26  1        5  1.00 1     0.999  1   
 6 trd.ferreteria..trd.automotriz..trd.herramientas.automotriz..trd.he…   710  2.21  1.00     6  1.00 0.994 0.992  1.00
 7 trd.ferreteria..trd.herramientas.electricas..trd.accesorios.y.repue…   582  1.81  1        7  1.00 0.998 1      1.00
 8 trd.ferreteria..trd.herramientas.manuales..trd.de.ajuste..trd.llave…   508  1.58  1        8  1.00 0.994 0.998  1.00
 9 trd.ferreteria..trd.plomeria..trd.accesorios.de.plomeria..trd.acces…   436  1.36  1        9  1.00 0.993 0.998  1.00
10 trd.estructura..trd.tubosistemas..trd.tuberia.y.accesorios.cpvc..tr…   399  1.24  1       10  1.00 0.997 0.990  1.00
# … with 292 more rows

$`Test's Confusion Matrix`
# A tibble: 302 x 303
   `Real x Pred` trd.ferreteria.… trd.ferreteria.… trd.ferreteria.… trd.ferreteria.… trd.ferreteria.… trd.ferreteria.…
   <fct>                    <int>            <int>            <int>            <int>            <int>            <int>
 1 trd.ferreter…             2444                0                1                0                0                0
 2 trd.ferreter…                0              999                0                0                0                0
 3 trd.ferreter…                1                0              893                0                0                0
 4 trd.ferreter…                0                0                1              768                0                0
 5 trd.ferreter…                1                0                0                0              725                0
 6 trd.ferreter…                2                0                0                0                0              704
 7 trd.ferreter…                0                0                0                0                0                0
 8 trd.ferreter…                0                1                0                0                0                0
 9 trd.ferreter…                0                0                0                0                0                0
10 trd.estructu…                0                0                0                0                0                0
# … with 292 more rows, and 296 more variables:
#   trd.ferreteria..trd.herramientas.electricas..trd.accesorios.y.repuestos..trd.discos.de.esmeril <int>,
#   trd.ferreteria..trd.herramientas.manuales..trd.de.ajuste..trd.llaves.caneria <int>,
#   trd.ferreteria..trd.plomeria..trd.accesorios.de.plomeria..trd.accesorios.varios <int>,
#   trd.estructura..trd.tubosistemas..trd.tuberia.y.accesorios.cpvc..trd.figuras.cpvc <int>,
#   trd.estructura..trd.tubosistemas..trd.tuberia.y.accesorios.ppr..trd.figuras.ppr <int>,
#   trd.acabados..trd.griferia..trd.accesorios.y.repuestos..trd.complementos.griferia <int>,
#   trd.ferreteria..trd.electrico..trd.accesorios.y.repuestos..trd.extensiones..extensores <int>,
#   trd.ferreteria..trd.automotriz..trd.herramientas.automotriz..trd.llaves.allen <int>,
…
